module gitlab.com/spbstu-2023/spbstu-2023-scm-minio-service

go 1.21.4

require (
	github.com/jmoiron/sqlx v1.3.5
	github.com/lib/pq v1.2.0
	github.com/minio/minio-go/v7 v7.0.64
	github.com/stretchr/testify v1.8.4
	github.com/testcontainers/testcontainers-go/modules/compose v0.26.0
	go.uber.org/zap v1.26.0
	google.golang.org/api v0.152.0
	google.golang.org/genproto/googleapis/api v0.0.0-20231127180814-3a041ad873d4
	google.golang.org/grpc v1.59.0
	google.golang.org/protobuf v1.31.0
	gopkg.in/yaml.v3 v3.0.1
)

require (
	cloud.google.com/go/compute v1.23.3 // indirect
	cloud.google.com/go/compute/metadata v0.2.3 // indirect
	dario.cat/mergo v1.0.0 // indirect
	github.com/AdaLogics/go-fuzz-headers v0.0.0-20230811130428-ced1acdcaa24 // indirect
	github.com/AlecAivazis/survey/v2 v2.3.7 // indirect
	github.com/Azure/go-ansiterm v0.0.0-20210617225240-d185dfc1b5a1 // indirect
	github.com/Masterminds/semver/v3 v3.2.1 // indirect
	github.com/Microsoft/go-winio v0.6.1 // indirect
	github.com/Microsoft/hcsshim v0.11.1 // indirect
	github.com/aws/aws-sdk-go-v2 v1.17.6 // indirect
	github.com/aws/aws-sdk-go-v2/config v1.18.16 // indirect
	github.com/aws/aws-sdk-go-v2/credentials v1.13.16 // indirect
	github.com/aws/aws-sdk-go-v2/feature/ec2/imds v1.12.24 // indirect
	github.com/aws/aws-sdk-go-v2/internal/configsources v1.1.30 // indirect
	github.com/aws/aws-sdk-go-v2/internal/endpoints/v2 v2.4.24 // indirect
	github.com/aws/aws-sdk-go-v2/internal/ini v1.3.31 // indirect
	github.com/aws/aws-sdk-go-v2/service/internal/presigned-url v1.9.24 // indirect
	github.com/aws/aws-sdk-go-v2/service/sso v1.12.5 // indirect
	github.com/aws/aws-sdk-go-v2/service/ssooidc v1.14.5 // indirect
	github.com/aws/aws-sdk-go-v2/service/sts v1.18.6 // indirect
	github.com/aws/smithy-go v1.13.5 // indirect
	github.com/beorn7/perks v1.0.1 // indirect
	github.com/buger/goterm v1.0.4 // indirect
	github.com/cenkalti/backoff/v4 v4.2.1 // indirect
	github.com/cespare/xxhash/v2 v2.2.0 // indirect
	github.com/compose-spec/compose-go v1.20.0 // indirect
	github.com/containerd/console v1.0.3 // indirect
	github.com/containerd/containerd v1.7.7 // indirect
	github.com/containerd/continuity v0.4.2 // indirect
	github.com/containerd/log v0.1.0 // indirect
	github.com/containerd/typeurl/v2 v2.1.1 // indirect
	github.com/cpuguy83/dockercfg v0.3.1 // indirect
	github.com/davecgh/go-spew v1.1.1 // indirect
	github.com/distribution/reference v0.5.0 // indirect
	github.com/docker/buildx v0.11.2 // indirect
	github.com/docker/cli v24.0.6+incompatible // indirect
	github.com/docker/compose/v2 v2.23.0 // indirect
	github.com/docker/distribution v2.8.2+incompatible // indirect
	github.com/docker/docker v24.0.6+incompatible // indirect
	github.com/docker/docker-credential-helpers v0.7.0 // indirect
	github.com/docker/go v1.5.1-1.0.20160303222718-d30aec9fd63c // indirect
	github.com/docker/go-connections v0.4.0 // indirect
	github.com/docker/go-metrics v0.0.1 // indirect
	github.com/docker/go-units v0.5.0 // indirect
	github.com/dustin/go-humanize v1.0.1 // indirect
	github.com/emicklei/go-restful/v3 v3.10.1 // indirect
	github.com/felixge/httpsnoop v1.0.3 // indirect
	github.com/fsnotify/fsevents v0.1.1 // indirect
	github.com/fvbommel/sortorder v1.0.2 // indirect
	github.com/go-logr/logr v1.2.4 // indirect
	github.com/go-logr/stdr v1.2.2 // indirect
	github.com/go-ole/go-ole v1.2.6 // indirect
	github.com/go-openapi/jsonpointer v0.19.5 // indirect
	github.com/go-openapi/jsonreference v0.20.0 // indirect
	github.com/go-openapi/swag v0.19.14 // indirect
	github.com/gofrs/flock v0.8.1 // indirect
	github.com/gogo/googleapis v1.4.1 // indirect
	github.com/gogo/protobuf v1.3.2 // indirect
	github.com/golang/groupcache v0.0.0-20210331224755-41bb18bfe9da // indirect
	github.com/golang/mock v1.6.0 // indirect
	github.com/golang/protobuf v1.5.3 // indirect
	github.com/google/gnostic v0.5.7-v3refs // indirect
	github.com/google/go-cmp v0.6.0 // indirect
	github.com/google/gofuzz v1.2.0 // indirect
	github.com/google/s2a-go v0.1.7 // indirect
	github.com/google/shlex v0.0.0-20191202100458-e7afc7fbc510 // indirect
	github.com/google/uuid v1.4.0 // indirect
	github.com/googleapis/enterprise-certificate-proxy v0.3.2 // indirect
	github.com/googleapis/gax-go/v2 v2.12.0 // indirect
	github.com/gorilla/mux v1.8.0 // indirect
	github.com/grpc-ecosystem/go-grpc-middleware v1.3.0 // indirect
	github.com/grpc-ecosystem/grpc-gateway/v2 v2.11.3 // indirect
	github.com/hashicorp/errwrap v1.1.0 // indirect
	github.com/hashicorp/go-multierror v1.1.1 // indirect
	github.com/hashicorp/go-version v1.6.0 // indirect
	github.com/imdario/mergo v0.3.16 // indirect
	github.com/in-toto/in-toto-golang v0.5.0 // indirect
	github.com/inconshreveable/mousetrap v1.1.0 // indirect
	github.com/jonboulle/clockwork v0.4.0 // indirect
	github.com/josharian/intern v1.0.0 // indirect
	github.com/json-iterator/go v1.1.12 // indirect
	github.com/kballard/go-shellquote v0.0.0-20180428030007-95032a82bc51 // indirect
	github.com/klauspost/compress v1.16.7 // indirect
	github.com/klauspost/cpuid/v2 v2.2.5 // indirect
	github.com/lufia/plan9stats v0.0.0-20211012122336-39d0f177ccd0 // indirect
	github.com/magiconair/properties v1.8.7 // indirect
	github.com/mailru/easyjson v0.7.6 // indirect
	github.com/mattn/go-colorable v0.1.13 // indirect
	github.com/mattn/go-isatty v0.0.17 // indirect
	github.com/mattn/go-runewidth v0.0.14 // indirect
	github.com/mattn/go-shellwords v1.0.12 // indirect
	github.com/matttproud/golang_protobuf_extensions v1.0.4 // indirect
	github.com/mgutz/ansi v0.0.0-20170206155736-9520e82c474b // indirect
	github.com/miekg/pkcs11 v1.1.1 // indirect
	github.com/minio/md5-simd v1.1.2 // indirect
	github.com/minio/sha256-simd v1.0.1 // indirect
	github.com/mitchellh/mapstructure v1.5.0 // indirect
	github.com/moby/buildkit v0.12.2 // indirect
	github.com/moby/locker v1.0.1 // indirect
	github.com/moby/patternmatcher v0.6.0 // indirect
	github.com/moby/spdystream v0.2.0 // indirect
	github.com/moby/sys/mountinfo v0.6.2 // indirect
	github.com/moby/sys/sequential v0.5.0 // indirect
	github.com/moby/sys/signal v0.7.0 // indirect
	github.com/moby/sys/symlink v0.2.0 // indirect
	github.com/moby/term v0.5.0 // indirect
	github.com/modern-go/concurrent v0.0.0-20180306012644-bacd9c7ef1dd // indirect
	github.com/modern-go/reflect2 v1.0.2 // indirect
	github.com/morikuni/aec v1.0.0 // indirect
	github.com/munnerz/goautoneg v0.0.0-20191010083416-a7dc8b61c822 // indirect
	github.com/opencontainers/go-digest v1.0.0 // indirect
	github.com/opencontainers/image-spec v1.1.0-rc5 // indirect
	github.com/opencontainers/runc v1.1.7 // indirect
	github.com/pelletier/go-toml v1.9.5 // indirect
	github.com/pkg/errors v0.9.1 // indirect
	github.com/pmezard/go-difflib v1.0.0 // indirect
	github.com/power-devops/perfstat v0.0.0-20210106213030-5aafc221ea8c // indirect
	github.com/prometheus/client_golang v1.14.0 // indirect
	github.com/prometheus/client_model v0.3.0 // indirect
	github.com/prometheus/common v0.42.0 // indirect
	github.com/prometheus/procfs v0.9.0 // indirect
	github.com/rivo/uniseg v0.2.0 // indirect
	github.com/rs/xid v1.5.0 // indirect
	github.com/secure-systems-lab/go-securesystemslib v0.4.0 // indirect
	github.com/serialx/hashring v0.0.0-20190422032157-8b2912629002 // indirect
	github.com/shibumi/go-pathspec v1.3.0 // indirect
	github.com/shirou/gopsutil/v3 v3.23.9 // indirect
	github.com/shoenig/go-m1cpu v0.1.6 // indirect
	github.com/sirupsen/logrus v1.9.3 // indirect
	github.com/spf13/cobra v1.7.0 // indirect
	github.com/spf13/pflag v1.0.5 // indirect
	github.com/testcontainers/testcontainers-go v0.26.0 // indirect
	github.com/theupdateframework/notary v0.7.0 // indirect
	github.com/tilt-dev/fsnotify v1.4.8-0.20220602155310-fff9c274a375 // indirect
	github.com/tklauser/go-sysconf v0.3.12 // indirect
	github.com/tklauser/numcpus v0.6.1 // indirect
	github.com/tonistiigi/fsutil v0.0.0-20230629203738-36ef4d8c0dbb // indirect
	github.com/tonistiigi/units v0.0.0-20180711220420-6950e57a87ea // indirect
	github.com/tonistiigi/vt100 v0.0.0-20230623042737-f9a4f7ef6531 // indirect
	github.com/xeipuuv/gojsonpointer v0.0.0-20190905194746-02993c407bfb // indirect
	github.com/xeipuuv/gojsonreference v0.0.0-20180127040603-bd5ef7bd5415 // indirect
	github.com/xeipuuv/gojsonschema v1.2.0 // indirect
	github.com/yusufpapurcu/wmi v1.2.3 // indirect
	go.opencensus.io v0.24.0 // indirect
	go.opentelemetry.io/contrib/instrumentation/google.golang.org/grpc/otelgrpc v0.40.0 // indirect
	go.opentelemetry.io/contrib/instrumentation/net/http/httptrace/otelhttptrace v0.40.0 // indirect
	go.opentelemetry.io/contrib/instrumentation/net/http/otelhttp v0.40.0 // indirect
	go.opentelemetry.io/otel v1.15.1 // indirect
	go.opentelemetry.io/otel/exporters/otlp/internal/retry v1.15.0 // indirect
	go.opentelemetry.io/otel/exporters/otlp/otlptrace v1.15.0 // indirect
	go.opentelemetry.io/otel/exporters/otlp/otlptrace/otlptracegrpc v1.15.0 // indirect
	go.opentelemetry.io/otel/exporters/otlp/otlptrace/otlptracehttp v1.15.0 // indirect
	go.opentelemetry.io/otel/metric v0.37.0 // indirect
	go.opentelemetry.io/otel/sdk v1.15.0 // indirect
	go.opentelemetry.io/otel/trace v1.15.1 // indirect
	go.opentelemetry.io/proto/otlp v0.19.0 // indirect
	go.uber.org/multierr v1.10.0 // indirect
	golang.org/x/crypto v0.15.0 // indirect
	golang.org/x/exp v0.0.0-20230713183714-613f0c0eb8a1 // indirect
	golang.org/x/mod v0.11.0 // indirect
	golang.org/x/net v0.18.0 // indirect
	golang.org/x/oauth2 v0.14.0 // indirect
	golang.org/x/sync v0.5.0 // indirect
	golang.org/x/sys v0.14.0 // indirect
	golang.org/x/term v0.14.0 // indirect
	golang.org/x/text v0.14.0 // indirect
	golang.org/x/time v0.5.0 // indirect
	golang.org/x/tools v0.7.0 // indirect
	google.golang.org/appengine v1.6.7 // indirect
	google.golang.org/genproto v0.0.0-20231120223509-83a465c0220f // indirect
	google.golang.org/genproto/googleapis/rpc v0.0.0-20231120223509-83a465c0220f // indirect
	gopkg.in/inf.v0 v0.9.1 // indirect
	gopkg.in/ini.v1 v1.67.0 // indirect
	gopkg.in/yaml.v2 v2.4.0 // indirect
	k8s.io/api v0.26.2 // indirect
	k8s.io/apimachinery v0.26.2 // indirect
	k8s.io/client-go v0.26.2 // indirect
	k8s.io/klog/v2 v2.90.1 // indirect
	k8s.io/kube-openapi v0.0.0-20221012153701-172d655c2280 // indirect
	k8s.io/utils v0.0.0-20230220204549-a5ecb0141aa5 // indirect
	sigs.k8s.io/json v0.0.0-20220713155537-f223a00ba0e2 // indirect
	sigs.k8s.io/structured-merge-diff/v4 v4.2.3 // indirect
	sigs.k8s.io/yaml v1.3.0 // indirect
)
